
>>> '%d %s   %.2f' % ( 1 ,  '. 圓周率'  , 3.14159265359  )
'1 . 圓周率   3.14'

>>> '%d %s   %.4f' % ( 2 ,  '. 圓周率'  , 3.14159265359  )
'2 . 圓周率   3.1416'

>>> '天賜%(sane)s神賜福 人迎%(rich)s花迎春' % {'sane' : '平安', 'rich' : '富貴'}
'天賜平安神賜福 人迎富貴花迎春'

>>> '天 {2} {1} 神 {2} 福   人 {0} {3} 花 {0} 春' .format( '迎' , '平 安', '賜' , '富 貴' )
'天 賜 平 安 神 賜 福   人 迎 富 貴 花 迎 春'

>>> ' {0}  {1}  {0}  {2} '.format('大', '吉', '利')
' 大  吉  大  利 '

>>> '{:d} {:s}   {:.2f}'.format( 1 ,  '. 圓周率'  , 3.14159265359  )
'1 . 圓周率   3.14'

>>> '{0:d} {1:s}   {2:.2f}      {1}  {2}       {1}  {2:.4f}  '.format( 2 ,  '圓周率'  , 3.14159265359  )
'2 圓周率   3.14      圓周率  3.14159265359       圓周率  3.1416  '

>>> '{0:d} {pi:s}   {val:.2f}      {pi}  {val}       {pi}  {val:.4f}  '.format( 2 ,  pi='圓周率'  , val=3.14159265359  )
'2 圓周率   3.14      圓周率  3.14159265359       圓周率  3.1416  '


>>> '{}新禧 萬事{}'.format('恭賀', '如意')
'恭賀新禧 萬事如意'

>>> '床前{2}光 疑是{0}霜 舉頭望{2} 低頭思{1}'.format( '地上' , '故鄉' , '明月' )
'床前明月光 疑是地上霜 舉頭望明月 低頭思故鄉'

>>> '天{0}地{0}三陽{0} 家{1}人{1}萬事{1}'.format('泰', '和')
'天泰地泰三陽泰 家和人和萬事和'

>>> '{year}有餘  {age}平安'.format(  age='歲歲' , year='年年' )
'年年有餘  歲歲平安'

>>> "{big}吉{big}利 心想{good}".format(  big='大' , good='事成' )
'大吉大利 心想事成'

>>> '人{0}得來、{1}出得去、{all}發大財'.format(  '進' , '貨', all='大家' )
'人進得來、貨出得去、大家發大財'

>>> "好時好景{} 大吉{}大{rich}".format(  '好過年' , '大利' , rich="發財" )
'好時好景好過年 大吉大利大發財'

