>>> a='天賜平安神賜福 人迎富貴花迎春'
>>> a
'天賜平安神賜福 人迎富貴花迎春'

>>> a="天賜平安"  "神賜福"    " "    "人迎富貴"   "花迎春"
>>> a
'天賜平安神賜福 人迎富貴花迎春'

>>> a='天賜平安'  "神賜福"    ' '    "人迎富貴"   '花迎春'
>>> a
'天賜平安神賜福 人迎富貴花迎春'

a=( '天賜平安'  
        "神賜福"    
        ' '    
        "人迎富貴"   
        '花迎春' )
>>> a=('天賜平安'  
... "神賜福"    
... ' '    
... "人迎富貴"   
... '花迎春')
>>> a
'天賜平安神賜福 人迎富貴花迎春'

>>> a="天賜平安神賜福 人迎富貴花迎春"
>>> _
'天賜平安神賜福 人迎富貴花迎春'

>>> type(a)
<class 'str'>

>>> _
<class 'str'>

>>> a[3]
'安'
>>> _
'安'

>>> a[-1]
'春'

>>> a[-5]
'富'

>>> a[1:4]
'賜平安'

>>> a[:4]
'天賜平安'

>>> a[8:]
'人迎富貴花迎春'

>>> a[10:-2]
'富貴花'

>>> a[8:12]
'人迎富貴'

>>> a[8:-3]
'人迎富貴'



